<svg width="10" height="6" viewBox="0 0 10 6" fill="none" xmlns="http://www.w3.org/2000/svg">
<path d="M4.28966 0.28283C4.23908 0.333115 4.19639 0.388788 4.15926 0.446616L0.28349 4.32738C-0.094437 4.70614 -0.0946163 5.31998 0.283669 5.69892C0.661776 6.07767 1.27503 6.07767 1.6535 5.69892L4.99135 2.35656L8.34677 5.7158C8.7247 6.09473 9.33814 6.09473 9.7166 5.7158C9.90547 5.52633 10 5.27832 10 5.0303C10 4.78229 9.90547 4.53373 9.71624 4.3448L5.82343 0.446616C5.7863 0.388787 5.74379 0.333295 5.69303 0.28283C5.49931 0.0888722 5.24497 -0.00415539 4.99135 0.000154754C4.73754 -0.00433513 4.48284 0.0888722 4.28966 0.28283Z" fill="white"/>
</svg>
